{
  "nodes": {
    "1": {
      "surface": "plane"
    },
    "2": {
      "surface": "plane"
    },
    "3": {
      "surface": "cylinder"
    },
    "4": {
      "surface": "plane"
    },
    "5": {
      "surface": "plane"
    },
    "6": {
      "surface": "plane"
    },
    "7": {
      "surface": "plane"
    },
    "8": {
      "surface": "plane"
    },
    "9": {
      "surface": "cylinder"
    },
    "10": {
      "surface": "sphere"
    },
    "11": {
      "surface": "plane"
    },
    "12": {
      "surface": "plane"
    },
    "13": {
      "surface": "cylinder"
    }
  },
  "arcs": [
    ["1", "2", "convex", -90],
    ["1", "3", "convex", -90],
    ["1", "4", "convex", -90],
    ["1", "5", "convex", -90],
    ["1", "6", "convex", -90],
    ["1", "7", "convex", -90],
    ["1", "8", "convex", -90],
    ["2", "3", "smooth concave", 177.71303937004993],
    ["2", "4", "convex", -90],
    ["2", "9", "smooth concave", 177.71303937004996],
    ["2", "10", "non-manifold", 0],
    ["3", "5", "smooth concave", 177.71303937004993],
    ["3", "9", "non-manifold", 0],
    ["3", "10", "smooth concave", 177.71303937004944],
    ["3", "13", "non-manifold", 0],
    ["4", "6", "convex", -90],
    ["4", "7", "convex", -90],
    ["4", "9", "convex", -90],
    ["4", "11", "convex", -90],
    ["4", "12", "convex", -90],
    ["5", "7", "convex", -90],
    ["5", "10", "non-manifold", 0],
    ["5", "13", "smooth concave", 177.71303937004993],
    ["6", "8", "convex", -90],
    ["6", "12", "convex", -90],
    ["7", "8", "convex", -90],
    ["7", "11", "convex", -90],
    ["7", "12", "convex", -90],
    ["7", "13", "convex", -90],
    ["8", "12", "convex", -90],
    ["9", "10", "smooth concave", 177.71303937004944],
    ["9", "11", "smooth concave", 177.71303937004993],
    ["9", "13", "non-manifold", 0],
    ["10", "11", "non-manifold", 0],
    ["10", "13", "smooth concave", 177.71303937004944],
    ["11", "13", "smooth concave", 177.71303937004993]
  ]
}
