<svg width="16" height="16" viewBox="0 0 16 16" fill="none" xmlns="http://www.w3.org/2000/svg">
<path d="M7.7368 4.08521L6.9104 4.91158L10 7.99999L6.9104 11.0884L7.7368 11.9148L11.2384 8.41318V7.5868L7.7368 4.08521Z" fill="#EFF0F1"/>
</svg>
